RunTerraWorkflow: Run workflows implemented in Terra • RunTerraWorkflow
…
Run bioBakery workflow

Once you clone the template workspace and update the input with your own data, you can launch the workflow using launchWorkflow function.

launchWorkflow(workspaceName)
#> No encoding supplied: defaulting to UTF-8.
#> [1] "Workflow is succesfully launched."

Monitor Progress

The last three columns show the submission and the result status.

submissions <- monitorSubmission(workspaceName)
submissions
#> # A tibble: 23 × 6
#>    submissionId            submitter submissionDate      status succeeded failed
#>    <chr>                   <chr>     <dttm>              <chr>      <int>  <int>
#>  1 0ac4c1e4-b206-40a9-a4b… shbrief@… 2022-04-13 16:38:36 Submi…         0      0
#>  2 888bb40b-afdd-4477-b69… shbrief@… 2022-04-13 15:44:28 Abort…         0      0
#>  3 f6f79d38-825f-4bb9-89f… shbrief@… 2022-04-13 00:57:27 Abort…         0      0
#>  4 eca13abb-a98d-4191-858… shbrief@… 2022-04-12 22:17:04 Abort…         0      0
#>  5 154ecf88-a4d0-4859-8fd… shbrief@… 2022-04-12 18:46:45 Abort…         0      0
#>  6 9f71497d-45da-4d89-908… shbrief@… 2022-04-12 00:51:21 Abort…         0      0
#>  7 f158e487-a02a-4de6-924… shbrief@… 2022-04-12 00:47:07 Abort…         0      0
#>  8 4ac530ad-11cf-43b8-91a… shbrief@… 2022-04-12 00:43:55 Done           1      0
#>  9 96071a85-03be-4fe2-8d8… shbrief@… 2022-04-12 00:42:43 Done           1      0
#> 10 83d92e35-4540-4133-957… shbrief@… 2022-04-12 00:23:21 Abort…         0      0
#> # … with 13 more rows
…
To abort the most recently submitted job, you don’t need to specify submissionId.

abortSubmission(workspaceName)
#> Status of the submitted job (submissionId: 0ac4c1e4-b206-40a9-a4be-59ca01a925c0)
#> [1] "Workflow is succesfully aborted."

Result

List Outputs

You can check all the output files from the most recently succeeded submission. If you specify the submissionId argument, you can get the output files of that specific submission. Output files can also be subset using keyword argument.

listOutput(workspaceName)
#> Outputs are from the submissionId 4ac530ad-11cf-43b8-91a0-350bf91a2295
#> # A tibble: 193 × 5
#>    file                                    workflow    task          type  path 
#>    <chr>                                   <chr>       <chr>         <chr> <chr>
#>  1 humann_ecs_relab_counts.tsv             workflowMTX call-CountRe… outp… gs:/…
#>  2 humann_genefamilies_relab_counts.tsv    workflowMTX call-CountRe… outp… gs:/…
#>  3 humann_pathabundance_relab_counts.tsv   workflowMTX call-CountRe… outp… gs:/…
#>  4 humann_read_and_species_count_table.tsv workflowMTX call-Functio… outp… gs:/…
#>  5 CSM9X23N_bowtie2_unaligned.fa           workflowMTX call-Functio… outp… gs:/…
#>  6 CSM9X23N_diamond_unaligned.fa           workflowMTX call-Functio… outp… gs:/…
#>  7 CSM9X23N_genefamilies.tsv               workflowMTX call-Functio… outp… gs:/…
#>  8 CSM9X23N_pathabundance.tsv              workflowMTX call-Functio… outp… gs:/…
#>  9 CSM9X23N_pathcoverage.tsv               workflowMTX call-Functio… outp… gs:/…
#> 10 HSM6XRQY_bowtie2_unaligned.fa           workflowMTX call-Functio… outp… gs:/…
#> # … with 183 more rows
…
