AnVILWorkflow: Run non-R workflows implemented in Terra using R • RunTerraWorkflow
…
# You should provide the inputName from the followings:
# [1] "AnVILBulkRNASeq_set"

runWorkflow(workspaceName, inputName = "AnVILBulkRNASeq_set")
#> [1] "Workflow is succesfully launched."

Monitor progress

The last three columns (status, succeeded,
and failed) show the submission and the result status.

submissions <- monitorWorkflow(workspaceName = "salmon_test")
submissions
#> # A tibble: 24 × 9
#>    submissio…¹ submi…² submissionDate      status succe…³ failed submi…⁴ names…⁵
#>    <chr>       <chr>   <dttm>              <chr>    <int>  <int> <chr>   <chr>  
#>  1 d2a06522-e… shbrie… 2022-11-01 10:10:16 Submi…       0      0 gs://f… waldro…
#>  2 8762e2cf-8… shbrie… 2022-10-27 22:56:42 Abort…       0      0 gs://f… waldro…
#>  3 6c0eed0c-9… shbrie… 2022-10-27 22:55:10 Abort…       0      0 gs://f… waldro…
#>  4 7598308b-9… shbrie… 2022-10-27 22:54:31 Abort…       0      0 gs://f… waldro…
#>  5 e2b6921e-2… shbrie… 2022-10-26 16:02:34 Abort…       0      0 gs://f… waldro…
#>  6 018bebd5-7… shbrie… 2022-10-26 16:01:23 Abort…       0      0 gs://f… waldro…
#>  7 a9704eed-d… shbrie… 2022-10-26 16:00:45 Abort…       0      0 gs://f… waldro…
#>  8 7ac90e50-8… shbrie… 2022-10-26 15:22:08 Abort…       0      0 gs://f… waldro…
#>  9 6ed7afa9-b… shbrie… 2022-10-26 15:15:20 Abort…       0      0 gs://f… waldro…
#> 10 25975032-f… shbrie… 2022-10-25 14:16:26 Abort…       0      0 gs://f… waldro…
#> # … with 14 more rows, 1 more variable: name <chr>, and abbreviated variable
#> #   names ¹​submissionId, ²​submitter, ³​succeeded, ⁴​submissionRoot, ⁵​namespace
…
